<?xml version="1.0" encoding="UTF-8"?>
<!DOCTYPE svg PUBLIC "-//W3C//DTD SVG 1.1//EN" "http://www.w3.org/Graphics/SVG/1.1/DTD/svg11.dtd">
<svg version="1.1" xmlns="http://www.w3.org/2000/svg" xmlns:xlink="http://www.w3.org/1999/xlink" width="150" height="36"  xml:space="preserve" id="interneuronWebHeaderWhite">
    <!-- Generated by PaintCode - http://www.paintcodeapp.com -->
    <path id="interneuronWebHeaderWhite-text" stroke="none" fill="rgb(255, 255, 255)" d="M 22.1,28.94 C 22.1,29.17 22.02,29.36 21.86,29.52 21.71,29.69 21.52,29.77 21.29,29.77 21.07,29.77 20.87,29.69 20.71,29.52 20.54,29.36 20.45,29.17 20.45,28.94 L 20.45,20.82 C 20.45,20.38 20.37,19.97 20.2,19.58 20.04,19.19 19.81,18.85 19.53,18.57 19.25,18.28 18.92,18.05 18.54,17.88 18.16,17.71 17.76,17.63 17.33,17.63 16.9,17.63 16.5,17.71 16.11,17.88 15.73,18.05 15.4,18.28 15.12,18.57 14.84,18.85 14.62,19.19 14.45,19.58 14.28,19.97 14.2,20.38 14.2,20.82 14.2,20.86 14.19,20.9 14.17,20.95 14.15,20.99 14.15,21.05 14.15,21.1 L 14.15,28.94 C 14.15,29.17 14.07,29.36 13.91,29.52 13.75,29.69 13.56,29.77 13.34,29.77 13.09,29.77 12.89,29.69 12.74,29.52 12.58,29.36 12.5,29.17 12.5,28.94 L 12.5,16.6 C 12.5,16.35 12.58,16.15 12.74,15.99 12.89,15.82 13.09,15.74 13.34,15.74 13.54,15.74 13.7,15.79 13.81,15.89 13.92,15.98 14,16.1 14.05,16.24 14.09,16.39 14.12,16.54 14.13,16.71 14.14,16.88 14.15,17.05 14.15,17.2 14.57,16.8 15.06,16.49 15.61,16.27 16.16,16.05 16.73,15.94 17.33,15.94 17.98,15.94 18.59,16.07 19.17,16.33 19.75,16.58 20.25,16.94 20.69,17.38 21.13,17.83 21.47,18.35 21.73,18.94 21.98,19.53 22.1,20.15 22.1,20.82 L 22.1,28.94 Z M 33.88,16.8 C 33.88,17.03 33.8,17.22 33.63,17.38 33.46,17.54 33.27,17.63 33.05,17.63 L 30.37,17.63 30.37,28.94 C 30.37,29.17 30.28,29.36 30.11,29.52 29.95,29.69 29.75,29.77 29.53,29.77 29.3,29.77 29.11,29.69 28.96,29.52 28.8,29.36 28.72,29.17 28.72,28.94 L 28.72,17.63 26.01,17.63 C 25.79,17.63 25.6,17.54 25.44,17.38 25.28,17.22 25.2,17.03 25.2,16.8 25.2,16.55 25.28,16.35 25.44,16.19 25.6,16.02 25.79,15.94 26.01,15.94 L 28.72,15.94 28.72,11.33 C 28.72,11.1 28.8,10.9 28.96,10.74 29.11,10.58 29.3,10.5 29.53,10.5 29.75,10.5 29.95,10.58 30.11,10.74 30.28,10.9 30.37,11.1 30.37,11.33 L 30.37,15.94 33.05,15.94 C 33.27,15.94 33.46,16.02 33.63,16.19 33.8,16.35 33.88,16.55 33.88,16.8 Z M 49.88,22.27 C 49.9,22.5 49.82,22.69 49.66,22.86 49.49,23.02 49.29,23.1 49.07,23.1 L 38.02,23.1 C 38.05,23.8 38.21,24.46 38.49,25.06 38.77,25.67 39.14,26.2 39.61,26.65 40.07,27.09 40.61,27.44 41.21,27.7 41.82,27.96 42.46,28.09 43.15,28.09 43.54,28.09 43.9,28.05 44.21,27.99 44.53,27.92 44.83,27.82 45.11,27.69 45.39,27.55 45.66,27.39 45.92,27.2 46.18,27.01 46.46,26.79 46.75,26.55 46.85,26.47 46.93,26.41 47.02,26.38 47.1,26.34 47.21,26.32 47.34,26.32 47.56,26.32 47.76,26.4 47.93,26.56 48.09,26.72 48.18,26.92 48.18,27.14 48.18,27.28 48.15,27.39 48.11,27.47 48.06,27.56 48,27.65 47.93,27.74 47.67,28.07 47.34,28.35 46.96,28.6 46.58,28.85 46.18,29.05 45.75,29.23 45.32,29.4 44.88,29.53 44.44,29.62 43.99,29.72 43.56,29.77 43.15,29.77 42.22,29.77 41.34,29.59 40.51,29.23 39.69,28.86 38.96,28.37 38.35,27.74 37.74,27.12 37.25,26.38 36.9,25.55 36.54,24.71 36.37,23.82 36.37,22.87 36.37,21.92 36.54,21.02 36.9,20.18 37.25,19.33 37.74,18.59 38.35,17.97 38.96,17.34 39.69,16.85 40.51,16.49 41.34,16.12 42.22,15.94 43.15,15.94 44.05,15.94 44.89,16.1 45.68,16.4 46.47,16.7 47.17,17.14 47.79,17.7 48.4,18.26 48.89,18.92 49.27,19.68 49.64,20.44 49.84,21.27 49.88,22.19 L 49.88,22.27 Z M 48.07,21.42 C 47.92,20.85 47.68,20.33 47.37,19.86 47.05,19.4 46.67,19 46.24,18.67 45.8,18.33 45.32,18.08 44.8,17.9 44.28,17.72 43.73,17.63 43.15,17.63 42.58,17.63 42.02,17.72 41.49,17.91 40.96,18.1 40.48,18.36 40.05,18.69 39.63,19.03 39.25,19.43 38.92,19.89 38.6,20.36 38.36,20.86 38.21,21.42 L 48.07,21.42 Z M 55.77,28.94 C 55.77,29.11 55.71,29.28 55.58,29.45 55.43,29.66 55.22,29.77 54.96,29.77 54.72,29.77 54.52,29.69 54.36,29.52 54.2,29.36 54.12,29.17 54.12,28.94 L 54.12,16.77 C 54.12,16.54 54.2,16.35 54.36,16.19 54.52,16.02 54.72,15.94 54.96,15.94 55.18,15.94 55.38,16.02 55.53,16.19 55.69,16.35 55.77,16.54 55.77,16.77 L 55.77,17.48 C 55.98,17.05 56.31,16.68 56.78,16.39 57.24,16.09 57.72,15.94 58.2,15.94 59.04,15.94 59.71,16.14 60.22,16.54 60.74,16.94 61.13,17.53 61.41,18.31 61.5,18.58 61.48,18.84 61.34,19.09 61.2,19.35 60.97,19.48 60.66,19.48 60.38,19.48 60.17,19.37 60.03,19.16 59.89,18.96 59.75,18.73 59.61,18.48 59.47,18.23 59.28,18.01 59.05,17.82 58.82,17.63 58.47,17.56 58,17.6 57.71,17.62 57.42,17.7 57.15,17.85 56.88,18.01 56.65,18.2 56.44,18.44 56.24,18.68 56.07,18.94 55.95,19.22 55.83,19.51 55.77,19.8 55.77,20.1 L 55.77,28.94 Z M 74.64,28.94 C 74.64,29.17 74.56,29.36 74.41,29.52 74.25,29.69 74.06,29.77 73.83,29.77 73.61,29.77 73.42,29.69 73.25,29.52 73.08,29.36 73,29.17 73,28.94 L 73,20.82 C 73,20.38 72.91,19.97 72.75,19.58 72.58,19.19 72.35,18.85 72.08,18.57 71.8,18.28 71.47,18.05 71.08,17.88 70.7,17.71 70.3,17.63 69.87,17.63 69.44,17.63 69.04,17.71 68.66,17.88 68.27,18.05 67.94,18.28 67.66,18.57 67.38,18.85 67.16,19.19 66.99,19.58 66.83,19.97 66.74,20.38 66.74,20.82 66.74,20.86 66.73,20.9 66.71,20.95 66.7,20.99 66.69,21.05 66.69,21.1 L 66.69,28.94 C 66.69,29.17 66.61,29.36 66.45,29.52 66.29,29.69 66.1,29.77 65.88,29.77 65.64,29.77 65.44,29.69 65.28,29.52 65.12,29.36 65.04,29.17 65.04,28.94 L 65.04,16.6 C 65.04,16.35 65.12,16.15 65.28,15.99 65.44,15.82 65.64,15.74 65.88,15.74 66.08,15.74 66.24,15.79 66.35,15.89 66.46,15.98 66.54,16.1 66.59,16.24 66.64,16.39 66.66,16.54 66.67,16.71 66.68,16.88 66.69,17.05 66.69,17.2 67.11,16.8 67.6,16.49 68.15,16.27 68.7,16.05 69.27,15.94 69.87,15.94 70.52,15.94 71.14,16.07 71.71,16.33 72.29,16.58 72.8,16.94 73.23,17.38 73.67,17.83 74.02,18.35 74.27,18.94 74.52,19.53 74.64,20.15 74.64,20.82 L 74.64,28.94 Z M 91.79,22.27 C 91.8,22.5 91.73,22.69 91.56,22.86 91.39,23.02 91.2,23.1 90.98,23.1 L 79.92,23.1 C 79.96,23.8 80.12,24.46 80.39,25.06 80.67,25.67 81.05,26.2 81.51,26.65 81.98,27.09 82.51,27.44 83.12,27.7 83.72,27.96 84.37,28.09 85.06,28.09 85.45,28.09 85.8,28.05 86.12,27.99 86.43,27.92 86.73,27.82 87.01,27.69 87.29,27.55 87.56,27.39 87.82,27.2 88.08,27.01 88.36,26.79 88.66,26.55 88.75,26.47 88.84,26.41 88.92,26.38 89.01,26.34 89.11,26.32 89.24,26.32 89.47,26.32 89.66,26.4 89.83,26.56 90,26.72 90.08,26.92 90.08,27.14 90.08,27.28 90.06,27.39 90.01,27.47 89.97,27.56 89.91,27.65 89.83,27.74 89.57,28.07 89.25,28.35 88.87,28.6 88.49,28.85 88.08,29.05 87.65,29.23 87.23,29.4 86.79,29.53 86.34,29.62 85.89,29.72 85.47,29.77 85.06,29.77 84.13,29.77 83.25,29.59 82.42,29.23 81.59,28.86 80.87,28.37 80.26,27.74 79.64,27.12 79.16,26.38 78.8,25.55 78.45,24.71 78.27,23.82 78.27,22.87 78.27,21.92 78.45,21.02 78.8,20.18 79.16,19.33 79.64,18.59 80.26,17.97 80.87,17.34 81.59,16.85 82.42,16.49 83.25,16.12 84.13,15.94 85.06,15.94 85.95,15.94 86.79,16.1 87.58,16.4 88.37,16.7 89.08,17.14 89.69,17.7 90.31,18.26 90.8,18.92 91.17,19.68 91.54,20.44 91.75,21.27 91.79,22.19 L 91.79,22.27 Z M 89.97,21.42 C 89.82,20.85 89.59,20.33 89.27,19.86 88.96,19.4 88.58,19 88.14,18.67 87.7,18.33 87.23,18.08 86.7,17.9 86.18,17.72 85.63,17.63 85.06,17.63 84.48,17.63 83.93,17.72 83.4,17.91 82.87,18.1 82.39,18.36 81.96,18.69 81.53,19.03 81.15,19.43 80.83,19.89 80.5,20.36 80.26,20.86 80.12,21.42 L 89.97,21.42 Z M 105.66,24.47 C 105.66,25.19 105.53,25.87 105.26,26.5 104.99,27.14 104.62,27.7 104.17,28.17 103.71,28.65 103.17,29.02 102.55,29.3 101.92,29.57 101.26,29.71 100.55,29.71 99.84,29.71 99.18,29.57 98.56,29.3 97.93,29.02 97.39,28.65 96.92,28.17 96.46,27.7 96.09,27.14 95.82,26.5 95.55,25.87 95.41,25.19 95.41,24.47 L 95.41,16.91 C 95.41,16.68 95.49,16.49 95.65,16.31 95.81,16.14 96.01,16.06 96.25,16.06 96.48,16.06 96.67,16.14 96.82,16.31 96.98,16.49 97.06,16.68 97.06,16.91 L 97.06,24.47 C 97.06,24.96 97.15,25.42 97.34,25.85 97.53,26.28 97.78,26.65 98.09,26.97 98.41,27.3 98.78,27.55 99.2,27.74 99.62,27.93 100.07,28.03 100.55,28.03 101.04,28.03 101.49,27.93 101.91,27.74 102.32,27.55 102.69,27.3 103.01,26.97 103.32,26.65 103.58,26.28 103.76,25.85 103.95,25.42 104.04,24.96 104.04,24.47 L 104.04,16.91 C 104.04,16.68 104.12,16.49 104.28,16.31 104.44,16.14 104.63,16.06 104.85,16.06 105.07,16.06 105.26,16.14 105.42,16.31 105.58,16.49 105.66,16.68 105.66,16.91 L 105.66,24.47 Z M 112.19,28.94 C 112.19,29.11 112.13,29.28 112,29.45 111.85,29.66 111.64,29.77 111.38,29.77 111.14,29.77 110.94,29.69 110.78,29.52 110.63,29.36 110.55,29.17 110.55,28.94 L 110.55,16.77 C 110.55,16.54 110.63,16.35 110.78,16.19 110.94,16.02 111.14,15.94 111.38,15.94 111.61,15.94 111.8,16.02 111.96,16.19 112.11,16.35 112.19,16.54 112.19,16.77 L 112.19,17.48 C 112.4,17.05 112.73,16.68 113.2,16.39 113.66,16.09 114.14,15.94 114.62,15.94 115.46,15.94 116.13,16.14 116.65,16.54 117.16,16.94 117.55,17.53 117.83,18.31 117.93,18.58 117.9,18.84 117.76,19.09 117.62,19.35 117.4,19.48 117.08,19.48 116.8,19.48 116.59,19.37 116.45,19.16 116.31,18.96 116.17,18.73 116.03,18.48 115.89,18.23 115.71,18.01 115.47,17.82 115.24,17.63 114.89,17.56 114.43,17.6 114.13,17.62 113.85,17.7 113.58,17.85 113.31,18.01 113.07,18.2 112.86,18.44 112.66,18.68 112.5,18.94 112.37,19.22 112.25,19.51 112.19,19.8 112.19,20.1 L 112.19,28.94 Z M 112.19,28.94" />
    <rect id="interneuronWebHeaderWhite-rectangle2" stroke="none" fill="rgb(255, 255, 255)" x="3.5" y="9.5" width="2" height="20" rx="1" />
    <rect id="interneuronWebHeaderWhite-rectangle3" stroke="none" fill="rgb(255, 255, 255)" x="4" y="28" width="1" height="7" />
    <rect id="interneuronWebHeaderWhite-rectangle4" stroke="none" fill="rgb(255, 255, 255)" x="4" y="35" width="124" height="1" />
    <path id="interneuronWebHeaderWhite-text2" stroke="none" fill="rgb(255, 255, 255)" d="M 120.12,22.98 C 120.12,22.01 120.3,21.09 120.67,20.22 121.03,19.35 121.53,18.6 122.16,17.96 122.79,17.31 123.53,16.81 124.39,16.44 125.24,16.07 126.15,15.88 127.1,15.88 128.06,15.88 128.96,16.07 129.81,16.44 130.65,16.81 131.39,17.31 132.02,17.96 132.65,18.6 133.15,19.35 133.51,20.22 133.88,21.09 134.06,22.01 134.06,22.98 134.06,23.95 133.88,24.87 133.51,25.73 133.15,26.58 132.65,27.33 132.02,27.98 131.39,28.62 130.65,29.13 129.81,29.5 128.96,29.87 128.06,30.05 127.1,30.05 126.15,30.05 125.24,29.87 124.39,29.5 123.53,29.13 122.79,28.62 122.16,27.98 121.53,27.33 121.03,26.58 120.67,25.73 120.3,24.87 120.12,23.95 120.12,22.98 Z M 121.81,22.98 C 121.81,23.72 121.95,24.42 122.23,25.07 122.51,25.72 122.89,26.29 123.37,26.76 123.85,27.24 124.41,27.62 125.05,27.9 125.69,28.19 126.38,28.33 127.1,28.33 127.83,28.33 128.52,28.19 129.16,27.9 129.8,27.62 130.36,27.24 130.83,26.76 131.3,26.29 131.67,25.72 131.95,25.07 132.22,24.42 132.36,23.72 132.36,22.98 132.36,22.24 132.22,21.55 131.95,20.89 131.67,20.24 131.3,19.67 130.83,19.18 130.36,18.7 129.8,18.31 129.16,18.03 128.52,17.75 127.83,17.61 127.1,17.61 126.38,17.61 125.69,17.75 125.05,18.03 124.41,18.31 123.85,18.7 123.37,19.18 122.89,19.67 122.51,20.24 122.23,20.89 121.95,21.55 121.81,22.24 121.81,22.98 Z M 121.81,22.98" />
    <path id="interneuronWebHeaderWhite-text4" stroke="none" fill="rgb(255, 255, 255)" d="M 148,28.93 C 148,29.16 147.92,29.36 147.77,29.52 147.61,29.69 147.42,29.77 147.2,29.77 146.98,29.77 146.79,29.69 146.62,29.52 146.46,29.36 146.37,29.16 146.37,28.93 L 146.37,20.73 C 146.37,20.28 146.29,19.87 146.13,19.47 145.96,19.08 145.74,18.74 145.46,18.45 145.19,18.16 144.86,17.93 144.49,17.76 144.11,17.59 143.71,17.5 143.29,17.5 142.87,17.5 142.47,17.59 142.09,17.76 141.71,17.93 141.39,18.16 141.11,18.45 140.84,18.74 140.61,19.08 140.45,19.47 140.28,19.87 140.2,20.28 140.2,20.73 140.2,20.76 140.19,20.81 140.17,20.85 140.16,20.9 140.15,20.96 140.15,21.01 L 140.15,28.93 C 140.15,29.16 140.07,29.36 139.91,29.52 139.76,29.69 139.57,29.77 139.35,29.77 139.11,29.77 138.91,29.69 138.75,29.52 138.6,29.36 138.52,29.16 138.52,28.93 L 138.52,16.46 C 138.52,16.21 138.6,16.01 138.75,15.84 138.91,15.68 139.11,15.6 139.35,15.6 139.55,15.6 139.71,15.65 139.82,15.74 139.93,15.84 140,15.96 140.05,16.1 140.1,16.25 140.12,16.41 140.13,16.58 140.14,16.75 140.15,16.91 140.15,17.07 140.57,16.67 141.05,16.35 141.59,16.13 142.13,15.91 142.7,15.8 143.29,15.8 143.93,15.8 144.54,15.93 145.11,16.19 145.68,16.45 146.18,16.8 146.61,17.26 147.04,17.71 147.38,18.23 147.63,18.82 147.88,19.42 148,20.05 148,20.73 L 148,28.93 Z M 148,28.93" />
    <path id="interneuronWebHeaderWhite-bezier4" stroke="none" fill="rgb(255, 255, 255)" d="M 136.29,23.82 C 136.29,28.98 132.17,33.17 127.09,33.17 122.01,33.17 117.89,28.98 117.89,23.82 117.89,23.72 117.89,23.63 117.89,23.53 L 119.01,23.53 C 119.01,23.63 119,23.72 119,23.82 119,28.35 122.62,32.03 127.09,32.03 131.55,32.03 135.17,28.35 135.17,23.82 135.17,23.72 135.17,23.63 135.17,23.53 L 136.29,23.53 C 136.29,23.63 136.29,23.72 136.29,23.82 Z M 136.29,23.82" />
    <rect id="interneuronWebHeaderWhite-rectangle5" stroke="none" fill="rgb(255, 255, 255)" x="127" y="32" width="1" height="4" />
    <path id="interneuronWebHeaderWhite-bezier" stroke="none" fill="rgb(255, 255, 255)" d="M 4.5,0.41 C 3.7,0.41 2.98,0.75 2.49,1.29 2.06,1.76 1.8,2.38 1.8,3.06 1.8,4.52 3.01,5.71 4.5,5.71 5.99,5.71 7.2,4.52 7.2,3.06 7.2,1.6 5.99,0.41 4.5,0.41 Z M 7.62,3.06 C 7.62,4.75 6.22,6.12 4.5,6.12 2.78,6.12 1.38,4.75 1.38,3.06 1.38,2.31 1.66,1.62 2.12,1.09 2.69,0.42 3.54,-0 4.5,-0 6.22,0 7.62,1.37 7.62,3.06 Z M 7.62,3.06" />
    <path id="interneuronWebHeaderWhite-rectangle" stroke="none" fill="rgb(255, 255, 255)" d="M 4.15,10.88 L 4.85,10.88 4.85,9.52 C 4.85,9.52 4.85,8.84 4.85,8.16 4.85,7.48 4.15,7.48 4.15,8.16 4.15,8.84 4.15,10.88 4.15,10.88 Z M 4.15,10.88" />
    <path id="interneuronWebHeaderWhite-bezier3" stroke="none" fill="rgb(255, 255, 255)" d="M 9,4.08 C 8.82,6.36 6.88,8.16 4.5,8.16 2.12,8.16 0.18,6.36 0,4.08 L 0.6,4.08 C 0.78,6.04 2.46,7.57 4.5,7.57 6.54,7.57 8.22,6.04 8.4,4.08 L 9,4.08 Z M 9,4.08" />
</svg>
