<?xml version="1.0" encoding="UTF-8"?>
<!DOCTYPE svg PUBLIC "-//W3C//DTD SVG 1.1//EN" "http://www.w3.org/Graphics/SVG/1.1/DTD/svg11.dtd">
<svg version="1.1" xmlns="http://www.w3.org/2000/svg" xmlns:xlink="http://www.w3.org/1999/xlink" width="60" height="60"  xml:space="preserve" id="nfpIcon">
    <!-- Generated by PaintCode - http://www.paintcodeapp.com -->
    <path id="nfpIcon-charityicon" stroke="none" fill="rgb(34, 11, 91)" d="M 28.44,25.7 C 27.78,26.43 21.51,33.58 21.51,33.58 20.77,34.26 19.69,34.19 19.01,33.39 18.27,32.51 18.27,31.09 19.01,30.21 19.88,29.18 25.71,22.81 25.77,22.74 L 25.66,22.61 C 26.62,23.67 27.7,24.87 28.44,25.7 Z M 18.49,29.59 C 19.35,28.58 24.73,22.68 25.24,22.13 24.27,21.06 23.5,20.22 23.48,20.2 23.32,20.02 23.31,19.72 23.46,19.53 23.62,19.33 23.87,19.32 24.03,19.5 24.22,19.7 28.55,24.47 29.65,25.77 30.59,26.89 32.13,26.89 33.07,25.77 34.02,24.65 34.02,22.84 33.07,21.72 32.44,20.97 30.63,18.67 29.18,16.81 24.03,12.79 15,15.48 15,24.77 15,29.05 16.94,31.17 16.94,31.17 L 17.73,32.03 C 17.67,31.16 17.93,30.26 18.49,29.59 Z M 30.5,17.1 C 31.78,18.73 33.13,20.43 33.64,21.04 34.9,22.53 34.9,24.95 33.64,26.44 33.01,27.19 32.19,27.56 31.36,27.56 30.53,27.56 29.71,27.19 29.08,26.44 L 29.02,26.37 C 28.53,26.92 23.18,32.91 22.35,33.89 21.62,34.75 21.62,36.15 22.35,37.01 23.07,37.87 24.29,37.87 25.01,37.01 25.05,36.97 31.31,29.92 31.54,29.67 31.68,29.5 31.92,29.51 32.06,29.69 32.2,29.86 32.19,30.14 32.04,30.3 31.99,30.37 25.65,37.49 25.65,37.49 L 25.39,37.87 C 24.9,38.74 24.98,39.93 25.63,40.7 26.35,41.56 27.53,41.57 28.27,40.74 28.27,40.74 34.69,33.72 34.92,33.47 35.07,33.31 35.3,33.32 35.44,33.49 35.58,33.67 35.57,33.95 35.42,34.11 35.36,34.16 28.81,41.34 28.81,41.34 28.22,42.18 28.24,43.41 28.86,44.24 L 29.15,44.56 C 29.8,45.13 30.69,45.15 31.35,44.61 L 43.17,31.17 C 43.17,31.17 45,29.29 45,24.77 45,15.28 35.82,12.67 30.5,17.1 Z M 30.5,17.1" />
</svg>
